EX3/HALF ADDER/simulation/qsim/HALF_ADDER.msim.vcd
$comment
	File created using the following command:
		vcd file HALF_ADDER.msim.vcd -direction
$end
$date
	Thu May 09 21:27:25 2024
$end
$version
	ModelSim Version 10.1d
$end
$timescale
	1ps
$end
$scope module HALF_ADDER_vlg_vec_tst $end
$var reg 1 ! A $end
$var reg 1 " B $end
$var wire 1 # C $end
$var wire 1 $ S $end
$var wire 1 % sampler $end
$scope module i1 $end
$var wire 1 & gnd $end
$var wire 1 ' vcc $end
$var wire 1 ( unknown $end
$var tri1 1 ) devclrn $end
$var tri1 1 * devpor $end
$var tri1 1 + devoe $end
$var wire 1 , ~QUARTUS_CREATED_GND~I_combout $end
$var wire 1 - A~input_o $end
$var wire 1 . B~input_o $end
$var wire 1 / S~0_combout $end
$upscope $end
$upscope $end
$enddefinitions $end
#0
$dumpvars
0!
0"
0#
0$
x%
0&
1'
x(
1)
1*
1+
0,
0-
0.
0/
$end
#10000
1!
1-
0%
1/
1$
#20000
0!
0-
1%
0/
0$
#30000
1"
1.
0%
1/
1$
#40000
0"
0.
1%
0/
0$
#50000
1!
1"
1-
1.
0%
#60000
0!
0"
0-
0.
1%
#70000
1!
1"
1-
1.
0%
#80000
0!
0"
0-
0.
1%
#90000
1!
1-
0%
1/
1$
#100000
0!
0-
1%
0/
0$
#110000
1"
1.
0%
1/
1$
#120000
0"
0.
1%
0/
0$
#130000
1"
1.
0%
1/
1$
#140000
1!
1-
1%
0/
0$
#150000
0"
0.
0%
1/
1$
#170000
0!
0-
1%
0/
0$
#180000
1"
1.
0%
1/
1$
#190000
0"
0.
1%
0/
0$
