EX12/simulation/qsim/EX12.msim.vcd
$comment
	File created using the following command:
		vcd file EX12.msim.vcd -direction
$end
$date
	Fri May 10 10:11:52 2024
$end
$version
	ModelSim Version 10.1d
$end
$timescale
	1ps
$end
$scope module EX12_vlg_vec_tst $end
$var reg 1 ! clk $end
$var reg 1 " reset $end
$var wire 1 # q [3] $end
$var wire 1 $ q [2] $end
$var wire 1 % q [1] $end
$var wire 1 & q [0] $end
$var wire 1 ' sampler $end
$scope module i1 $end
$var wire 1 ( gnd $end
$var wire 1 ) vcc $end
$var wire 1 * unknown $end
$var tri1 1 + devclrn $end
$var tri1 1 , devpor $end
$var tri1 1 - devoe $end
$var wire 1 . clk~input_o $end
$var wire 1 / ~QUARTUS_CREATED_GND~I_combout $end
$var wire 1 0 clk~inputCLKENA0_outclk $end
$var wire 1 1 tffo|dff0|q~0_combout $end
$var wire 1 2 tffo|dff0|q~feeder_combout $end
$var wire 1 3 reset~input_o $end
$var wire 1 4 tffo|dff0|q~q $end
$var wire 1 5 q[0]~reg0_q $end
$var wire 1 6 tff1|dff0|q~0_combout $end
$var wire 1 7 tff1|dff0|q~feeder_combout $end
$var wire 1 8 tff1|dff0|q~q $end
$var wire 1 9 q[1]~reg0feeder_combout $end
$var wire 1 : q[1]~reg0_q $end
$var wire 1 ; tff2|dff0|q~0_combout $end
$var wire 1 < tff2|dff0|q~feeder_combout $end
$var wire 1 = tff2|dff0|q~q $end
$var wire 1 > q[2]~reg0_q $end
$var wire 1 ? tff3|dff0|q~q $end
$var wire 1 @ tff3|dff0|q~0_combout $end
$var wire 1 A tff3|dff0|q~feeder_combout $end
$var wire 1 B tff3|dff0|q~DUPLICATE_q $end
$var wire 1 C q[3]~reg0_q $end
$upscope $end
$upscope $end
$enddefinitions $end
#0
$dumpvars
1!
1"
0&
0%
0$
0#
x'
0(
1)
x*
1+
1,
1-
1.
0/
10
11
12
13
04
05
16
17
08
09
0:
1;
1<
0=
0>
0?
1@
1A
0B
0C
$end
#10000
0!
0"
0.
03
00
0'
#20000
1!
1.
10
1'
14
01
02
18
06
19
07
1=
0;
0<
1B
1?
0@
0A
#30000
0!
0.
00
0'
#40000
1!
1.
10
1'
04
1C
1>
1:
15
11
1#
1$
1%
1&
12
#50000
0!
0.
00
0'
#60000
1!
1.
10
1'
14
05
01
0&
02
08
16
09
17
#70000
0!
0.
00
0'
#80000
1"
1!
13
1.
10
1'
04
0=
0?
0B
0:
0>
0C
11
1;
1@
0%
0$
0#
12
1<
1A
#90000
0"
0!
03
0.
00
0'
#100000
1!
1.
10
1'
14
01
02
18
06
19
07
1=
0;
0<
1B
1?
0@
0A
#110000
0!
0.
00
0'
#120000
1!
1.
10
1'
04
1C
1>
1:
15
11
1#
1$
1%
1&
12
#130000
0!
0.
00
0'
#140000
1"
1!
13
1.
10
1'
08
0=
0?
0B
05
0:
0>
0C
16
09
1;
1@
0&
0%
0$
0#
17
1<
1A
#150000
0"
0!
03
0.
00
0'
#160000
1!
1.
10
1'
14
01
02
18
06
19
07
1=
0;
0<
1B
1?
0@
0A
#170000
0!
0.
00
0'
#180000
1!
1.
10
1'
04
1C
1>
1:
15
11
1#
1$
1%
1&
12
#190000
0!
0.
00
0'
