EX1/simulation/qsim/EX1.msim.vcd
$comment
	File created using the following command:
		vcd file EX1.msim.vcd -direction
$end
$date
	Thu May 09 20:10:34 2024
$end
$version
	ModelSim Version 10.1d
$end
$timescale
	1ps
$end
$scope module EX1_vlg_vec_tst $end
$var reg 1 ! a $end
$var reg 1 " b $end
$var wire 1 # y1 $end
$var wire 1 $ y2 $end
$var wire 1 % y3 $end
$var wire 1 & y4 $end
$var wire 1 ' y5 $end
$var wire 1 ( y6 $end
$var wire 1 ) y7 $end
$var wire 1 * sampler $end
$scope module i1 $end
$var wire 1 + gnd $end
$var wire 1 , vcc $end
$var wire 1 - unknown $end
$var tri1 1 . devclrn $end
$var tri1 1 / devpor $end
$var tri1 1 0 devoe $end
$var wire 1 1 ~QUARTUS_CREATED_GND~I_combout $end
$var wire 1 2 a~input_o $end
$var wire 1 3 b~input_o $end
$var wire 1 4 comb~0_combout $end
$var wire 1 5 comb~1_combout $end
$var wire 1 6 comb~2_combout $end
$upscope $end
$upscope $end
$enddefinitions $end
#0
$dumpvars
1!
0"
0#
1$
0%
1&
1'
0(
0)
x*
0+
1,
x-
1.
1/
10
01
12
03
04
15
16
$end
#10000
0!
1"
02
13
0*
1%
#20000
1!
12
1*
0%
14
06
1#
0&
0'
1)
#30000
0"
03
0*
04
16
0#
1&
1'
0)
#40000
0!
02
1*
1%
05
06
0$
0&
1(
1)
#50000
1"
13
0*
15
16
1$
1&
0(
0)
#70000
0"
03
1*
05
06
0$
0&
1(
1)
#80000
1!
12
0*
0%
15
16
1$
1&
0(
0)
#100000
1"
13
1*
14
06
1#
0&
0'
1)
#110000
0"
03
0*
04
16
0#
1&
1'
0)
#120000
0!
02
1*
1%
05
06
0$
0&
1(
1)
#130000
1"
13
0*
15
16
1$
1&
0(
0)
#140000
1!
12
1*
0%
14
06
1#
0&
0'
1)
#150000
0"
0!
03
02
0*
1%
04
05
0#
0$
1'
1(
#170000
1"
1!
13
12
1*
0%
14
15
1#
1$
0'
0(
#180000
0"
03
0*
04
16
0#
1&
1'
0)
#190000
0!
02
1*
1%
05
06
0$
0&
1(
1)
