EX6/simulation/qsim/EX6.msim.vcd
$comment
	File created using the following command:
		vcd file EX6.msim.vcd -direction
$end
$date
	Thu May 09 22:44:36 2024
$end
$version
	ModelSim Version 10.1d
$end
$timescale
	1ps
$end
$scope module EX6_vlg_vec_tst $end
$var reg 1 ! clk $end
$var reg 1 " r $end
$var reg 1 # reset $end
$var reg 1 $ s $end
$var wire 1 % q $end
$var wire 1 & q_bar $end
$var wire 1 ' sampler $end
$scope module i1 $end
$var wire 1 ( gnd $end
$var wire 1 ) vcc $end
$var wire 1 * unknown $end
$var tri1 1 + devclrn $end
$var tri1 1 , devpor $end
$var tri1 1 - devoe $end
$var wire 1 . s~input_o $end
$var wire 1 / ~QUARTUS_CREATED_GND~I_combout $end
$var wire 1 0 clk~input_o $end
$var wire 1 1 r~input_o $end
$var wire 1 2 q~0_combout $end
$var wire 1 3 q~reg0feeder_combout $end
$var wire 1 4 reset~input_o $end
$var wire 1 5 q~reg0_q $end
$upscope $end
$upscope $end
$enddefinitions $end
#0
$dumpvars
1!
1"
0#
0$
0%
1&
x'
0(
1)
x*
1+
1,
1-
0.
0/
10
11
02
03
04
05
$end
#10000
0!
0"
1$
00
01
1.
0'
12
13
#20000
1!
1"
10
11
1'
02
03
15
12
1%
0&
13
#30000
0$
0!
0"
0.
00
01
0'
#40000
1!
1"
10
11
1'
02
03
#50000
0"
01
0'
12
13
#60000
1$
1.
1'
#70000
1#
0!
0$
14
00
0.
0'
05
02
0%
1&
03
#80000
0#
1!
1$
04
10
1.
1'
12
13
#90000
1"
11
0'
02
03
#100000
0!
0$
0"
00
0.
01
1'
#110000
1#
1!
1"
14
10
11
0'
#120000
0#
0!
0"
04
00
01
1'
#130000
1$
1#
1!
1.
14
10
0'
12
13
#140000
1"
0$
0#
0!
11
0.
04
00
1'
02
03
#150000
0"
1$
1!
01
1.
10
0'
12
13
#170000
0$
0!
0.
00
1'
02
03
#180000
1"
1!
11
10
0'
#190000
1$
0"
0!
1.
01
00
1'
12
13
