EX2/simulation/qsim/EX2.msim.vcd
$comment
	File created using the following command:
		vcd file EX2.msim.vcd -direction
$end
$date
	Thu May 09 21:05:35 2024
$end
$version
	ModelSim Version 10.1d
$end
$timescale
	1ps
$end
$scope module EX2_vlg_vec_tst $end
$var reg 1 ! a $end
$var reg 1 " b $end
$var reg 1 # c $end
$var reg 1 $ d $end
$var wire 1 % f1 $end
$var wire 1 & sampler $end
$scope module i1 $end
$var wire 1 ' gnd $end
$var wire 1 ( vcc $end
$var wire 1 ) unknown $end
$var tri1 1 * devclrn $end
$var tri1 1 + devpor $end
$var tri1 1 , devoe $end
$var wire 1 - ~QUARTUS_CREATED_GND~I_combout $end
$var wire 1 . a~input_o $end
$var wire 1 / d~input_o $end
$var wire 1 0 b~input_o $end
$var wire 1 1 c~input_o $end
$var wire 1 2 f1~0_combout $end
$upscope $end
$upscope $end
$enddefinitions $end
#0
$dumpvars
1!
1"
1#
0$
0%
x&
0'
1(
x)
1*
1+
1,
0-
1.
0/
10
11
12
$end
#10000
0#
01
0&
02
1%
#20000
0!
1$
1#
0.
1/
11
1&
#30000
0"
0#
00
01
0&
12
0%
#40000
0$
0/
1&
02
1%
#50000
1#
1$
11
1/
0&
12
0%
#60000
1!
1"
0$
1.
10
0/
1&
#70000
0#
0"
01
00
0&
02
1%
#80000
0!
0.
1&
#90000
1$
1!
1/
1.
0&
12
0%
#100000
1#
1"
0!
11
10
0.
1&
02
1%
#110000
0#
0"
01
00
0&
12
0%
#120000
1"
10
1&
02
1%
#130000
0$
0"
0/
00
0&
#140000
1#
1"
11
10
1&
12
0%
#150000
0#
0"
01
00
0&
02
1%
#160000
1!
1$
1#
1"
1.
1/
11
10
1&
12
0%
#170000
0!
0#
0"
0.
01
00
0&
#180000
0$
1!
1"
0/
1.
10
1&
02
1%
#190000
0!
0"
0.
00
0&
