EX2/simulation/qsim/EX2.msim.vcd
$comment
	File created using the following command:
		vcd file EX2.msim.vcd -direction
$end
$date
	Sat May 11 23:42:55 2024
$end
$version
	ModelSim Version 10.1d
$end
$timescale
	1ps
$end
$scope module EX2_vlg_vec_tst $end
$var reg 1 ! a $end
$var reg 1 " b $end
$var reg 1 # c $end
$var reg 1 $ d $end
$var reg 1 % w $end
$var reg 1 & x $end
$var reg 1 ' y $end
$var reg 1 ( z $end
$var wire 1 ) f1 $end
$var wire 1 * f2 $end
$var wire 1 + sampler $end
$scope module i1 $end
$var wire 1 , gnd $end
$var wire 1 - vcc $end
$var wire 1 . unknown $end
$var tri1 1 / devclrn $end
$var tri1 1 0 devpor $end
$var tri1 1 1 devoe $end
$var wire 1 2 z~input_o $end
$var wire 1 3 a~input_o $end
$var wire 1 4 c~input_o $end
$var wire 1 5 y~input_o $end
$var wire 1 6 ~QUARTUS_CREATED_GND~I_combout $end
$var wire 1 7 b~input_o $end
$var wire 1 8 d~input_o $end
$var wire 1 9 o1~0_combout $end
$var wire 1 : w~input_o $end
$var wire 1 ; x~input_o $end
$var wire 1 < o2~0_combout $end
$upscope $end
$upscope $end
$enddefinitions $end
#0
$dumpvars
1!
1"
0#
0$
0%
0&
0'
1(
0)
0*
x+
0,
1-
x.
1/
10
11
12
13
04
05
06
17
08
19
0:
0;
0<
$end
#10000
0!
0"
1#
1$
1'
03
07
14
18
15
0+
#20000
1%
0(
1!
0#
0'
1:
02
13
04
05
1+
1<
1*
#30000
1&
1"
0$
0%
0!
1#
1;
17
08
0:
03
14
0+
0<
0*
#40000
0&
0"
1!
0#
0;
07
13
04
1+
09
1)
#50000
1'
1#
15
14
0+
#60000
1(
1%
0!
0'
12
1:
03
05
1+
1<
1*
#70000
0#
0(
1'
04
02
15
0+
#80000
1$
1&
0%
1!
0'
18
1;
0:
13
05
1+
19
0<
0)
0*
#90000
0$
0&
0!
08
0;
03
0+
09
1)
#100000
1(
1'
1$
1!
12
15
18
13
1+
19
0)
#110000
1"
0(
0'
0!
17
02
05
03
0+
#120000
1%
0"
1(
1:
07
12
1+
1<
1*
#130000
1&
0$
1!
0%
0(
1;
08
13
0:
02
0+
09
0<
1)
0*
#140000
1"
0&
0!
1(
17
0;
03
12
1+
19
0)
#150000
1#
1'
0"
1&
0(
14
15
07
1;
02
0+
09
1)
#160000
1%
1!
0#
0'
0&
1:
13
04
05
0;
1+
1<
1*
#170000
1$
0%
0!
1#
1'
18
0:
03
14
15
0+
19
0<
0)
0*
#180000
1(
0$
1!
0#
0'
12
08
13
04
05
1+
09
1)
#190000
1"
1&
0(
0!
17
1;
02
03
0+
19
0)
