EX11/simulation/qsim/EX11.msim.vcd
$comment
	File created using the following command:
		vcd file EX11.msim.vcd -direction
$end
$date
	Fri May 10 10:03:28 2024
$end
$version
	ModelSim Version 10.1d
$end
$timescale
	1ps
$end
$scope module EX11_vlg_vec_tst $end
$var reg 1 ! clk $end
$var wire 1 " q1 $end
$var wire 1 # q2 $end
$var wire 1 $ q3 $end
$var wire 1 % sampler $end
$scope module i1 $end
$var wire 1 & gnd $end
$var wire 1 ' vcc $end
$var wire 1 ( unknown $end
$var tri1 1 ) devclrn $end
$var tri1 1 * devpor $end
$var tri1 1 + devoe $end
$var wire 1 , clk~input_o $end
$var wire 1 - ~QUARTUS_CREATED_GND~I_combout $end
$var wire 1 . clk~inputCLKENA0_outclk $end
$var wire 1 / q1~reg0_q $end
$var wire 1 0 q1~0_combout $end
$var wire 1 1 q1~reg0DUPLICATE_q $end
$var wire 1 2 q2~reg0_q $end
$var wire 1 3 q2~0_combout $end
$var wire 1 4 q2~reg0DUPLICATE_q $end
$var wire 1 5 q3~0_combout $end
$var wire 1 6 q3~reg0_q $end
$upscope $end
$upscope $end
$enddefinitions $end
#0
$dumpvars
0!
0"
0#
0$
x%
0&
1'
x(
1)
1*
1+
0,
0-
0.
0/
10
01
02
03
04
05
06
$end
#10000
1!
1,
1.
0%
1/
11
00
13
1"
#20000
0!
0,
0.
1%
#30000
1!
1,
1.
0%
12
0/
14
01
10
1#
0"
#40000
0!
0,
0.
1%
#50000
1!
1,
1.
0%
1/
11
00
03
15
1"
#60000
0!
0,
0.
1%
#70000
1!
1,
1.
0%
02
0/
16
04
01
10
1$
0#
0"
#80000
0!
0,
0.
1%
#90000
1!
1,
1.
0%
1/
11
00
13
1"
#100000
0!
0,
0.
1%
#110000
1!
1,
1.
0%
12
0/
14
01
10
1#
0"
#120000
0!
0,
0.
1%
#130000
1!
1,
1.
0%
1/
11
00
03
05
1"
#140000
0!
0,
0.
1%
#150000
1!
1,
1.
0%
02
0/
06
04
01
10
0$
0#
0"
#160000
0!
0,
0.
1%
#170000
1!
1,
1.
0%
1/
11
00
13
1"
#180000
0!
0,
0.
1%
#190000
1!
1,
1.
0%
12
0/
14
01
10
1#
0"
