EX9/simulation/qsim/EX9.msim.vcd
$comment
	File created using the following command:
		vcd file EX9.msim.vcd -direction
$end
$date
	Fri May 10 09:45:43 2024
$end
$version
	ModelSim Version 10.1d
$end
$timescale
	1ps
$end
$scope module EX9_vlg_vec_tst $end
$var reg 1 ! T $end
$var reg 1 " clk $end
$var wire 1 # Q $end
$var wire 1 $ Qbar $end
$var wire 1 % sampler $end
$scope module i1 $end
$var wire 1 & gnd $end
$var wire 1 ' vcc $end
$var wire 1 ( unknown $end
$var tri1 1 ) devclrn $end
$var tri1 1 * devpor $end
$var tri1 1 + devoe $end
$var wire 1 , ~QUARTUS_CREATED_GND~I_combout $end
$var wire 1 - clk~input_o $end
$var wire 1 . T~input_o $end
$var wire 1 / comb~1_combout $end
$var wire 1 0 comb~0_combout $end
$upscope $end
$upscope $end
$enddefinitions $end
#0
$dumpvars
1!
1"
1#
1$
x%
0&
1'
x(
1)
1*
1+
0,
1-
1.
0/
10
$end
#10000
0!
0"
0.
0-
0%
00
0$
#20000
1!
1"
1.
1-
1%
10
1$
#30000
0"
0-
0%
00
0$
#40000
0!
1"
0.
1-
1%
#50000
1!
0"
1.
0-
0%
#60000
0!
1"
0.
1-
1%
#70000
1!
0"
1.
0-
0%
#80000
1"
1-
1%
10
1$
#90000
0!
0"
0.
0-
0%
00
0$
#100000
1!
1"
1.
1-
1%
10
1$
#110000
0!
0"
0.
0-
0%
00
0$
#120000
1"
1-
1%
#130000
0"
0-
0%
#140000
1!
1"
1.
1-
1%
10
1$
#150000
0"
0-
0%
00
0$
#160000
0!
1"
0.
1-
1%
#170000
0"
0-
0%
#180000
1!
1"
1.
1-
1%
10
1$
#190000
0!
0"
0.
0-
0%
00
0$
