EX10/simulation/qsim/EX10.msim.vcd
$comment
	File created using the following command:
		vcd file EX10.msim.vcd -direction
$end
$date
	Fri May 10 09:56:59 2024
$end
$version
	ModelSim Version 10.1d
$end
$timescale
	1ps
$end
$scope module EX10_vlg_vec_tst $end
$var reg 1 ! clear $end
$var reg 1 " clk $end
$var reg 1 # si $end
$var wire 1 $ so $end
$var wire 1 % sampler $end
$scope module i1 $end
$var wire 1 & gnd $end
$var wire 1 ' vcc $end
$var wire 1 ( unknown $end
$var tri1 1 ) devclrn $end
$var tri1 1 * devpor $end
$var tri1 1 + devoe $end
$var wire 1 , clk~input_o $end
$var wire 1 - si~input_o $end
$var wire 1 . ~QUARTUS_CREATED_GND~I_combout $end
$var wire 1 / clk~inputCLKENA0_outclk $end
$var wire 1 0 clear~input_o $end
$var wire 1 1 tmp~3_combout $end
$var wire 1 2 tmp~2_combout $end
$var wire 1 3 tmp~1_combout $end
$var wire 1 4 tmp~0_combout $end
$var wire 1 5 tmp [3] $end
$var wire 1 6 tmp [2] $end
$var wire 1 7 tmp [1] $end
$var wire 1 8 tmp [0] $end
$upscope $end
$upscope $end
$enddefinitions $end
#0
$dumpvars
0!
0"
1#
0$
x%
0&
1'
x(
1)
1*
1+
0,
1-
0.
0/
00
11
02
03
04
08
07
06
05
$end
#10000
1!
0#
10
0-
0%
01
#20000
1"
0!
1#
1,
00
1-
1/
1%
11
#30000
0#
0-
0%
01
#40000
0"
1#
0,
1-
0/
1%
11
#50000
1!
1"
0#
10
1,
0-
1/
0%
01
18
#60000
1#
1-
1%
#70000
0!
0"
00
0,
0/
0%
11
12
#80000
0#
1!
1"
0-
10
1,
1/
1%
01
02
17
#90000
0!
00
0%
12
13
#100000
1#
0"
1-
0,
0/
1%
11
#110000
1!
10
0%
01
02
03
#120000
0#
1"
0!
0-
1,
00
1/
1%
12
13
07
08
03
02
#130000
0"
0,
0/
0%
#140000
1#
1!
1-
10
1%
#150000
1"
0#
0!
1,
0-
00
1/
0%
#160000
1!
10
1%
#170000
0"
0,
0/
0%
#180000
1#
1"
1-
1,
1/
1%
#190000
0!
0#
0"
00
0-
0,
0/
0%
