EX3/HALF SUBTRACTOR/simulation/qsim/HALF_SUBTRACTOR.msim.vcd
$comment
	File created using the following command:
		vcd file HALF_SUBTRACTOR.msim.vcd -direction
$end
$date
	Thu May 09 21:37:48 2024
$end
$version
	ModelSim Version 10.1d
$end
$timescale
	1ps
$end
$scope module HALF_SUBTRACTOR_vlg_vec_tst $end
$var reg 1 ! a $end
$var reg 1 " b $end
$var wire 1 # borrow $end
$var wire 1 $ difference $end
$var wire 1 % sampler $end
$scope module i1 $end
$var wire 1 & gnd $end
$var wire 1 ' vcc $end
$var wire 1 ( unknown $end
$var tri1 1 ) devclrn $end
$var tri1 1 * devpor $end
$var tri1 1 + devoe $end
$var wire 1 , ~QUARTUS_CREATED_GND~I_combout $end
$var wire 1 - a~input_o $end
$var wire 1 . b~input_o $end
$var wire 1 / difference~0_combout $end
$var wire 1 0 borrow~0_combout $end
$upscope $end
$upscope $end
$enddefinitions $end
#0
$dumpvars
1!
1"
0#
0$
x%
0&
1'
x(
1)
1*
1+
0,
1-
1.
0/
00
$end
#10000
0!
0"
0-
0.
0%
#20000
1!
1-
1%
1/
1$
#30000
0!
0-
0%
0/
0$
#40000
1"
1.
1%
1/
10
1$
1#
#50000
0"
0.
0%
0/
00
0$
0#
#60000
1!
1"
1-
1.
1%
#70000
0!
0"
0-
0.
0%
#80000
1!
1-
1%
1/
1$
#90000
1"
1.
0%
0/
0$
#100000
0!
0-
1%
1/
10
1$
1#
#120000
0"
1!
0.
1-
0%
00
0#
#130000
1"
1.
1%
0/
0$
#140000
0!
0-
0%
1/
10
1$
1#
#160000
0"
0.
1%
0/
00
0$
0#
#170000
1!
1"
1-
1.
0%
#180000
0"
0.
1%
1/
1$
#190000
0!
0-
0%
0/
0$
