EX7/simulation/qsim/EX7.msim.vcd
$comment
	File created using the following command:
		vcd file EX7.msim.vcd -direction
$end
$date
	Thu May 09 22:54:10 2024
$end
$version
	ModelSim Version 10.1d
$end
$timescale
	1ps
$end
$scope module EX7_vlg_vec_tst $end
$var reg 1 ! clock $end
$var reg 1 " j $end
$var reg 1 # k $end
$var reg 1 $ reset $end
$var wire 1 % q $end
$var wire 1 & qb $end
$var wire 1 ' sampler $end
$scope module i1 $end
$var wire 1 ( gnd $end
$var wire 1 ) vcc $end
$var wire 1 * unknown $end
$var tri1 1 + devclrn $end
$var tri1 1 , devpor $end
$var tri1 1 - devoe $end
$var wire 1 . clock~input_o $end
$var wire 1 / ~QUARTUS_CREATED_GND~I_combout $end
$var wire 1 0 clock~inputCLKENA0_outclk $end
$var wire 1 1 k~input_o $end
$var wire 1 2 j~input_o $end
$var wire 1 3 q~0_combout $end
$var wire 1 4 reset~input_o $end
$var wire 1 5 always0~0_combout $end
$var wire 1 6 q~reg0_q $end
$var wire 1 7 qb~0_combout $end
$var wire 1 8 qb~reg0_q $end
$upscope $end
$upscope $end
$enddefinitions $end
#0
$dumpvars
1!
1"
1#
0$
0%
1&
x'
0(
1)
x*
1+
1,
1-
1.
0/
10
11
12
13
04
05
06
17
08
$end
#10000
0"
0#
02
01
0'
15
#20000
0!
1"
1#
0.
12
11
00
1'
05
#30000
1!
0"
1.
02
10
0'
03
15
07
#40000
0#
0!
01
0.
00
1'
13
17
#50000
1#
1!
11
1.
10
0'
03
07
18
16
0&
1%
#60000
1"
0!
12
0.
00
1'
13
05
17
#70000
0#
1!
01
1.
10
0'
15
#80000
0"
02
1'
03
07
#90000
1#
0!
11
0.
00
0'
#100000
1"
0#
12
01
1'
13
17
#110000
0"
1#
02
11
0'
03
07
#120000
1!
1.
10
1'
08
06
1&
0%
#130000
0#
0!
01
0.
00
0'
13
17
#140000
1#
11
1'
03
07
#150000
1"
0#
12
01
0'
13
17
#160000
1!
0"
1.
02
10
1'
18
16
07
03
0&
1%
#170000
1"
12
0'
13
17
#180000
0!
0.
00
1'
#190000
1#
0"
11
02
0'
03
07
