EX4/FULL SUBTRACTOR/simulation/qsim/FULL_SUBTRACTOR.msim.vcd
$comment
	File created using the following command:
		vcd file FULL_SUBTRACTOR.msim.vcd -direction
$end
$date
	Thu May 09 21:54:12 2024
$end
$version
	ModelSim Version 10.1d
$end
$timescale
	1ps
$end
$scope module FULL_SUBTRACTOR_vlg_vec_tst $end
$var reg 1 ! a $end
$var reg 1 " b $end
$var reg 1 # c $end
$var wire 1 $ borrow $end
$var wire 1 % difference $end
$var wire 1 & sampler $end
$scope module i1 $end
$var wire 1 ' gnd $end
$var wire 1 ( vcc $end
$var wire 1 ) unknown $end
$var tri1 1 * devclrn $end
$var tri1 1 + devpor $end
$var tri1 1 , devoe $end
$var wire 1 - ~QUARTUS_CREATED_GND~I_combout $end
$var wire 1 . b~input_o $end
$var wire 1 / c~input_o $end
$var wire 1 0 a~input_o $end
$var wire 1 1 difference~0_combout $end
$var wire 1 2 borrow~0_combout $end
$upscope $end
$upscope $end
$enddefinitions $end
#0
$dumpvars
0!
0"
1#
1$
1%
x&
0'
1(
x)
1*
1+
1,
0-
0.
1/
00
11
12
$end
#10000
1!
1"
0#
10
1.
0/
0&
01
02
0%
0$
#20000
0!
0"
1#
00
0.
1/
1&
11
12
1%
1$
#30000
1!
10
0&
01
02
0%
0$
#40000
1"
0#
1.
0/
1&
#50000
0!
00
0&
11
12
1%
1$
#60000
0"
1#
0.
1/
1&
#70000
1!
1"
0#
10
1.
0/
0&
01
02
0%
0$
#80000
1#
1/
1&
11
12
1%
1$
#90000
0!
0"
00
0.
0&
#100000
0#
0/
1&
01
02
0%
0$
#110000
1#
1/
0&
11
12
1%
1$
#120000
1!
1"
10
1.
1&
#130000
0#
0"
0/
0.
0&
02
0$
#140000
0!
00
1&
01
0%
#150000
1#
1/
0&
11
12
1%
1$
#160000
1"
1.
1&
01
0%
#170000
0#
0/
0&
11
1%
#180000
1!
0"
10
0.
1&
02
0$
#190000
0!
00
0&
01
0%
